<?xml version="1.0" encoding="utf-8"?>
<COLLADA xmlns="http://www.collada.org/2005/11/COLLADASchema" version="1.4.0">
  <asset>
    <contributor>
      <author></author>
      <authoring_tool>FBX COLLADA exporter</authoring_tool>
      <comments></comments>
    </contributor>
    <created>2010-12-03T10:00:51Z</created>
    <modified>2010-12-03T10:00:51Z</modified>
    <revision></revision>
    <title></title>
    <subject></subject>
    <keywords></keywords>
    <unit meter="0.025400"/>
    <up_axis>Y_UP</up_axis>
  </asset>
  <library_geometries>
    <geometry id="Cylinder01-lib" name="Cylinder01Mesh">
      <mesh>
        <source id="Cylinder01-lib-Position">
          <float_array id="Cylinder01-lib-Position-array" count="330">
0.000000 0.000000 0.000000
30.000000 0.000000 0.000000
28.190779 10.260605 0.000000
22.981333 19.283628 0.000000
14.999999 25.980762 0.000000
5.209443 29.544233 0.000000
-5.209449 29.544231 0.000000
-15.000002 25.980761 0.000000
-22.981333 19.283628 0.000000
-28.190779 10.260607 0.000000
-30.000000 0.000005 0.000000
-28.190781 -10.260598 0.000000
-22.981339 -19.283621 0.000000
-15.000010 -25.980757 0.000000
-5.209458 -29.544230 0.000000
5.209431 -29.544235 0.000000
14.999985 -25.980770 0.000000
22.981321 -19.283644 0.000000
28.190771 -10.260624 0.000000
30.000000 0.000000 12.000000
28.190779 10.260605 12.000000
22.981333 19.283628 12.000000
14.999999 25.980762 12.000000
5.209443 29.544233 12.000000
-5.209449 29.544231 12.000000
-15.000002 25.980761 12.000000
-22.981333 19.283628 12.000000
-28.190779 10.260607 12.000000
-30.000000 0.000005 12.000000
-28.190781 -10.260598 12.000000
-22.981339 -19.283621 12.000000
-15.000010 -25.980757 12.000000
-5.209458 -29.544230 12.000000
5.209431 -29.544235 12.000000
14.999985 -25.980770 12.000000
22.981321 -19.283644 12.000000
28.190771 -10.260624 12.000000
30.000000 0.000000 24.000000
28.190779 10.260605 24.000000
22.981333 19.283628 24.000000
14.999999 25.980762 24.000000
5.209443 29.544233 24.000000
-5.209449 29.544231 24.000000
-15.000002 25.980761 24.000000
-22.981333 19.283628 24.000000
-28.190779 10.260607 24.000000
-30.000000 0.000005 24.000000
-28.190781 -10.260598 24.000000
-22.981339 -19.283621 24.000000
-15.000010 -25.980757 24.000000
-5.209458 -29.544230 24.000000
5.209431 -29.544235 24.000000
14.999985 -25.980770 24.000000
22.981321 -19.283644 24.000000
28.190771 -10.260624 24.000000
30.000000 0.000000 36.000000
28.190779 10.260605 36.000000
22.981333 19.283628 36.000000
14.999999 25.980762 36.000000
5.209443 29.544233 36.000000
-5.209449 29.544231 36.000000
-15.000002 25.980761 36.000000
-22.981333 19.283628 36.000000
-28.190779 10.260607 36.000000
-30.000000 0.000005 36.000000
-28.190781 -10.260598 36.000000
-22.981339 -19.283621 36.000000
-15.000010 -25.980757 36.000000
-5.209458 -29.544230 36.000000
5.209431 -29.544235 36.000000
14.999985 -25.980770 36.000000
22.981321 -19.283644 36.000000
28.190771 -10.260624 36.000000
30.000000 0.000000 48.000000
28.190779 10.260605 48.000000
22.981333 19.283628 48.000000
14.999999 25.980762 48.000000
5.209443 29.544233 48.000000
-5.209449 29.544231 48.000000
-15.000002 25.980761 48.000000
-22.981333 19.283628 48.000000
-28.190779 10.260607 48.000000
-30.000000 0.000005 48.000000
-28.190781 -10.260598 48.000000
-22.981339 -19.283621 48.000000
-15.000010 -25.980757 48.000000
-5.209458 -29.544230 48.000000
5.209431 -29.544235 48.000000
14.999985 -25.980770 48.000000
22.981321 -19.283644 48.000000
28.190771 -10.260624 48.000000
30.000000 0.000000 60.000000
28.190779 10.260605 60.000000
22.981333 19.283628 60.000000
14.999999 25.980762 60.000000
5.209443 29.544233 60.000000
-5.209449 29.544231 60.000000
-15.000002 25.980761 60.000000
-22.981333 19.283628 60.000000
-28.190779 10.260607 60.000000
-30.000000 0.000005 60.000000
-28.190781 -10.260598 60.000000
-22.981339 -19.283621 60.000000
-15.000010 -25.980757 60.000000
-5.209458 -29.544230 60.000000
5.209431 -29.544235 60.000000
14.999985 -25.980770 60.000000
22.981321 -19.283644 60.000000
28.190771 -10.260624 60.000000
0.000000 0.000000 60.000000
</float_array>
          <technique_common>
            <accessor source="#Cylinder01-lib-Position-array" count="110" stride="3">
              <param name="X" type="float"/>
              <param name="Y" type="float"/>
              <param name="Z" type="float"/>
            </accessor>
          </technique_common>
        </source>
        <source id="Cylinder01-lib-Normal0">
          <float_array id="Cylinder01-lib-Normal0-array" count="1944">
0.000000 0.000000 -1.000000
0.000000 0.000000 -1.000000
0.000000 0.000000 -1.000000
0.000000 0.000000 -1.000000
0.000000 0.000000 -1.000000
0.000000 0.000000 -1.000000
0.000000 0.000000 -1.000000
0.000000 0.000000 -1.000000
0.000000 0.000000 -1.000000
0.000000 0.000000 -1.000000
0.000000 0.000000 -1.000000
0.000000 0.000000 -1.000000
0.000000 0.000000 -1.000000
0.000000 0.000000 -1.000000
0.000000 0.000000 -1.000000
0.000000 0.000000 -1.000000
0.000000 0.000000 -1.000000
0.000000 0.000000 -1.000000
0.000000 0.000000 -1.000000
0.000000 0.000000 -1.000000
0.000000 0.000000 -1.000000
0.000000 0.000000 -1.000000
0.000000 0.000000 -1.000000
0.000000 0.000000 -1.000000
0.000000 0.000000 -1.000000
0.000000 0.000000 -1.000000
0.000000 0.000000 -1.000000
0.000000 0.000000 -1.000000
0.000000 0.000000 -1.000000
0.000000 0.000000 -1.000000
0.000000 0.000000 -1.000000
0.000000 0.000000 -1.000000
0.000000 0.000000 -1.000000
0.000000 0.000000 -1.000000
0.000000 0.000000 -1.000000
0.000000 0.000000 -1.000000
0.000000 0.000000 -1.000000
0.000000 0.000000 -1.000000
0.000000 0.000000 -1.000000
0.000000 0.000000 -1.000000
0.000000 0.000000 -1.000000
0.000000 0.000000 -1.000000
0.000000 0.000000 -1.000000
0.000000 0.000000 -1.000000
0.000000 0.000000 -1.000000
0.000000 0.000000 -1.000000
0.000000 0.000000 -1.000000
0.000000 0.000000 -1.000000
0.000000 0.000000 -1.000000
0.000000 0.000000 -1.000000
0.000000 0.000000 -1.000000
0.000000 0.000000 -1.000000
0.000000 0.000000 -1.000000
0.000000 0.000000 -1.000000
1.000000 -0.000000 0.000000
0.939693 0.342020 0.000000
1.000000 -0.000000 0.000000
1.000000 -0.000000 0.000000
0.939693 0.342020 0.000000
0.939693 0.342020 0.000000
0.939693 0.342020 0.000000
0.766044 0.642788 0.000000
0.939693 0.342020 0.000000
0.939693 0.342020 0.000000
0.766044 0.642788 0.000000
0.766044 0.642788 0.000000
0.766044 0.642788 0.000000
0.500000 0.866025 0.000000
0.766044 0.642788 0.000000
0.766044 0.642788 0.000000
0.500000 0.866025 0.000000
0.500000 0.866025 0.000000
0.500000 0.866025 0.000000
0.173648 0.984808 0.000000
0.500000 0.866025 0.000000
0.500000 0.866025 0.000000
0.173648 0.984808 0.000000
0.173648 0.984808 0.000000
0.173648 0.984808 0.000000
-0.173648 0.984808 0.000000
0.173648 0.984808 0.000000
0.173648 0.984808 0.000000
-0.173648 0.984808 0.000000
-0.173648 0.984808 0.000000
-0.173648 0.984808 0.000000
-0.500000 0.866025 0.000000
-0.173648 0.984808 0.000000
-0.173648 0.984808 0.000000
-0.500000 0.866025 0.000000
-0.500000 0.866025 0.000000
-0.500000 0.866025 0.000000
-0.766044 0.642788 0.000000
-0.500000 0.866025 0.000000
-0.500000 0.866025 0.000000
-0.766044 0.642788 0.000000
-0.766044 0.642788 0.000000
-0.766044 0.642788 0.000000
-0.939693 0.342020 0.000000
-0.766044 0.642788 0.000000
-0.766044 0.642788 0.000000
-0.939693 0.342020 0.000000
-0.939693 0.342020 0.000000
-0.939693 0.342020 0.000000
-1.000000 0.000000 0.000000
-0.939693 0.342020 0.000000
-0.939693 0.342020 0.000000
-1.000000 0.000000 0.000000
-1.000000 0.000000 0.000000
-1.000000 0.000000 0.000000
-0.939693 -0.342020 0.000000
-1.000000 0.000000 0.000000
-1.000000 0.000000 0.000000
-0.939693 -0.342020 0.000000
-0.939693 -0.342020 0.000000
-0.939693 -0.342020 0.000000
-0.766045 -0.642787 0.000000
-0.939693 -0.342020 0.000000
-0.939693 -0.342020 0.000000
-0.766045 -0.642787 0.000000
-0.766045 -0.642787 0.000000
-0.766045 -0.642787 0.000000
-0.500000 -0.866025 0.000000
-0.766045 -0.642787 0.000000
-0.766045 -0.642787 0.000000
-0.500000 -0.866025 0.000000
-0.500000 -0.866025 0.000000
-0.500000 -0.866025 0.000000
-0.173649 -0.984808 0.000000
-0.500000 -0.866025 0.000000
-0.500000 -0.866025 0.000000
-0.173649 -0.984808 0.000000
-0.173649 -0.984808 0.000000
-0.173649 -0.984808 0.000000
0.173648 -0.984808 0.000000
-0.173649 -0.984808 0.000000
-0.173649 -0.984808 0.000000
0.173648 -0.984808 0.000000
0.173648 -0.984808 0.000000
0.173648 -0.984808 0.000000
0.499999 -0.866026 0.000000
0.173648 -0.984808 0.000000
0.173648 -0.984808 0.000000
0.499999 -0.866026 0.000000
0.499999 -0.866026 0.000000
0.499999 -0.866026 0.000000
0.766044 -0.642788 0.000000
0.499999 -0.866026 0.000000
0.499999 -0.866026 0.000000
0.766044 -0.642788 0.000000
0.766044 -0.642788 0.000000
0.766044 -0.642788 0.000000
0.939692 -0.342021 0.000000
0.766044 -0.642788 0.000000
0.766044 -0.642788 0.000000
0.939692 -0.342021 0.000000
0.939692 -0.342021 0.000000
0.939692 -0.342021 0.000000
1.000000 -0.000000 0.000000
0.939692 -0.342021 0.000000
0.939692 -0.342021 0.000000
1.000000 -0.000000 0.000000
1.000000 -0.000000 0.000000
1.000000 -0.000000 0.000000
0.939693 0.342020 0.000000
1.000000 -0.000000 0.000000
1.000000 -0.000000 0.000000
0.939693 0.342020 0.000000
0.939693 0.342020 0.000000
0.939693 0.342020 0.000000
0.766044 0.642788 0.000000
0.939693 0.342020 0.000000
0.939693 0.342020 0.000000
0.766044 0.642788 0.000000
0.766044 0.642788 0.000000
0.766044 0.642788 0.000000
0.500000 0.866025 0.000000
0.766044 0.642788 0.000000
0.766044 0.642788 0.000000
0.500000 0.866025 0.000000
0.500000 0.866025 0.000000
0.500000 0.866025 0.000000
0.173648 0.984808 0.000000
0.500000 0.866025 0.000000
0.500000 0.866025 0.000000
0.173648 0.984808 0.000000
0.173648 0.984808 0.000000
0.173648 0.984808 0.000000
-0.173648 0.984808 0.000000
0.173648 0.984808 0.000000
0.173648 0.984808 0.000000
-0.173648 0.984808 0.000000
-0.173648 0.984808 0.000000
-0.173648 0.984808 0.000000
-0.500000 0.866025 0.000000
-0.173648 0.984808 0.000000
-0.173648 0.984808 0.000000
-0.500000 0.866025 0.000000
-0.500000 0.866025 0.000000
-0.500000 0.866025 0.000000
-0.766044 0.642788 0.000000
-0.500000 0.866025 0.000000
-0.500000 0.866025 0.000000
-0.766044 0.642788 0.000000
-0.766044 0.642788 0.000000
-0.766044 0.642788 0.000000
-0.939693 0.342020 0.000000
-0.766044 0.642788 0.000000
-0.766044 0.642788 0.000000
-0.939693 0.342020 0.000000
-0.939693 0.342020 0.000000
-0.939693 0.342020 0.000000
-1.000000 0.000000 0.000000
-0.939693 0.342020 0.000000
-0.939693 0.342020 0.000000
-1.000000 0.000000 0.000000
-1.000000 0.000000 0.000000
-1.000000 0.000000 0.000000
-0.939693 -0.342020 0.000000
-1.000000 0.000000 0.000000
-1.000000 0.000000 0.000000
-0.939693 -0.342020 0.000000
-0.939693 -0.342020 0.000000
-0.939693 -0.342020 0.000000
-0.766045 -0.642787 0.000000
-0.939693 -0.342020 0.000000
-0.939693 -0.342020 0.000000
-0.766045 -0.642787 0.000000
-0.766045 -0.642787 0.000000
-0.766045 -0.642787 0.000000
-0.500000 -0.866025 0.000000
-0.766045 -0.642787 0.000000
-0.766045 -0.642787 0.000000
-0.500000 -0.866025 0.000000
-0.500000 -0.866025 0.000000
-0.500000 -0.866025 0.000000
-0.173649 -0.984808 0.000000
-0.500000 -0.866025 0.000000
-0.500000 -0.866025 0.000000
-0.173649 -0.984808 0.000000
-0.173649 -0.984808 0.000000
-0.173649 -0.984808 0.000000
0.173648 -0.984808 0.000000
-0.173649 -0.984808 0.000000
-0.173649 -0.984808 0.000000
0.173648 -0.984808 0.000000
0.173648 -0.984808 0.000000
0.173648 -0.984808 0.000000
0.499999 -0.866026 0.000000
0.173648 -0.984808 0.000000
0.173648 -0.984808 0.000000
0.499999 -0.866026 0.000000
0.499999 -0.866026 0.000000
0.499999 -0.866026 0.000000
0.766044 -0.642788 0.000000
0.499999 -0.866026 0.000000
0.499999 -0.866026 0.000000
0.766044 -0.642788 0.000000
0.766044 -0.642788 0.000000
0.766044 -0.642788 0.000000
0.939692 -0.342021 0.000000
0.766044 -0.642788 0.000000
0.766044 -0.642788 0.000000
0.939692 -0.342021 0.000000
0.939692 -0.342021 0.000000
0.939692 -0.342021 0.000000
1.000000 -0.000000 0.000000
0.939692 -0.342021 0.000000
0.939692 -0.342021 0.000000
1.000000 -0.000000 0.000000
1.000000 -0.000000 0.000000
1.000000 -0.000000 0.000000
0.939693 0.342020 0.000000
1.000000 -0.000000 0.000000
1.000000 -0.000000 0.000000
0.939693 0.342020 0.000000
0.939693 0.342020 0.000000
0.939693 0.342020 0.000000
0.766044 0.642788 0.000000
0.939693 0.342020 0.000000
0.939693 0.342020 0.000000
0.766044 0.642788 0.000000
0.766044 0.642788 0.000000
0.766044 0.642788 0.000000
0.500000 0.866025 0.000000
0.766044 0.642788 0.000000
0.766044 0.642788 0.000000
0.500000 0.866025 0.000000
0.500000 0.866025 0.000000
0.500000 0.866025 0.000000
0.173648 0.984808 0.000000
0.500000 0.866025 0.000000
0.500000 0.866025 0.000000
0.173648 0.984808 0.000000
0.173648 0.984808 0.000000
0.173648 0.984808 0.000000
-0.173648 0.984808 0.000000
0.173648 0.984808 0.000000
0.173648 0.984808 0.000000
-0.173648 0.984808 0.000000
-0.173648 0.984808 0.000000
-0.173648 0.984808 0.000000
-0.500000 0.866025 0.000000
-0.173648 0.984808 0.000000
-0.173648 0.984808 0.000000
-0.500000 0.866025 0.000000
-0.500000 0.866025 0.000000
-0.500000 0.866025 0.000000
-0.766044 0.642788 0.000000
-0.500000 0.866025 0.000000
-0.500000 0.866025 0.000000
-0.766044 0.642788 0.000000
-0.766044 0.642788 0.000000
-0.766044 0.642788 0.000000
-0.939693 0.342020 0.000000
-0.766044 0.642788 0.000000
-0.766044 0.642788 0.000000
-0.939693 0.342020 0.000000
-0.939693 0.342020 0.000000
-0.939693 0.342020 0.000000
-1.000000 0.000000 0.000000
-0.939693 0.342020 0.000000
-0.939693 0.342020 0.000000
-1.000000 0.000000 0.000000
-1.000000 0.000000 0.000000
-1.000000 0.000000 0.000000
-0.939693 -0.342020 0.000000
-1.000000 0.000000 0.000000
-1.000000 0.000000 0.000000
-0.939693 -0.342020 0.000000
-0.939693 -0.342020 0.000000
-0.939693 -0.342020 0.000000
-0.766045 -0.642787 0.000000
-0.939693 -0.342020 0.000000
-0.939693 -0.342020 0.000000
-0.766045 -0.642787 0.000000
-0.766045 -0.642787 0.000000
-0.766045 -0.642787 0.000000
-0.500000 -0.866025 0.000000
-0.766045 -0.642787 0.000000
-0.766045 -0.642787 0.000000
-0.500000 -0.866025 0.000000
-0.500000 -0.866025 0.000000
-0.500000 -0.866025 0.000000
-0.173649 -0.984808 0.000000
-0.500000 -0.866025 0.000000
-0.500000 -0.866025 0.000000
-0.173649 -0.984808 0.000000
-0.173649 -0.984808 0.000000
-0.173649 -0.984808 0.000000
0.173648 -0.984808 0.000000
-0.173649 -0.984808 0.000000
-0.173649 -0.984808 0.000000
0.173648 -0.984808 0.000000
0.173648 -0.984808 0.000000
0.173648 -0.984808 0.000000
0.499999 -0.866026 0.000000
0.173648 -0.984808 0.000000
0.173648 -0.984808 0.000000
0.499999 -0.866026 0.000000
0.499999 -0.866026 0.000000
0.499999 -0.866026 0.000000
0.766044 -0.642788 0.000000
0.499999 -0.866026 0.000000
0.499999 -0.866026 0.000000
0.766044 -0.642788 0.000000
0.766044 -0.642788 0.000000
0.766044 -0.642788 0.000000
0.939692 -0.342021 0.000000
0.766044 -0.642788 0.000000
0.766044 -0.642788 0.000000
0.939692 -0.342021 0.000000
0.939692 -0.342021 0.000000
0.939692 -0.342021 0.000000
1.000000 -0.000000 0.000000
0.939692 -0.342021 0.000000
0.939692 -0.342021 0.000000
1.000000 -0.000000 0.000000
1.000000 -0.000000 0.000000
1.000000 -0.000000 0.000000
0.939693 0.342020 0.000000
1.000000 -0.000000 0.000000
1.000000 -0.000000 0.000000
0.939693 0.342020 0.000000
0.939693 0.342020 0.000000
0.939693 0.342020 0.000000
0.766044 0.642788 0.000000
0.939693 0.342020 0.000000
0.939693 0.342020 0.000000
0.766044 0.642788 0.000000
0.766044 0.642788 0.000000
0.766044 0.642788 0.000000
0.500000 0.866025 0.000000
0.766044 0.642788 0.000000
0.766044 0.642788 0.000000
0.500000 0.866025 0.000000
0.500000 0.866025 0.000000
0.500000 0.866025 0.000000
0.173648 0.984808 0.000000
0.500000 0.866025 0.000000
0.500000 0.866025 0.000000
0.173648 0.984808 0.000000
0.173648 0.984808 0.000000
0.173648 0.984808 0.000000
-0.173648 0.984808 0.000000
0.173648 0.984808 0.000000
0.173648 0.984808 0.000000
-0.173648 0.984808 0.000000
-0.173648 0.984808 0.000000
-0.173648 0.984808 0.000000
-0.500000 0.866025 0.000000
-0.173648 0.984808 0.000000
-0.173648 0.984808 0.000000
-0.500000 0.866025 0.000000
-0.500000 0.866025 0.000000
-0.500000 0.866025 0.000000
-0.766044 0.642788 0.000000
-0.500000 0.866025 0.000000
-0.500000 0.866025 0.000000
-0.766044 0.642788 0.000000
-0.766044 0.642788 0.000000
-0.766044 0.642788 0.000000
-0.939693 0.342020 0.000000
-0.766044 0.642788 0.000000
-0.766044 0.642788 0.000000
-0.939693 0.342020 0.000000
-0.939693 0.342020 0.000000
-0.939693 0.342020 0.000000
-1.000000 0.000000 0.000000
-0.939693 0.342020 0.000000
-0.939693 0.342020 0.000000
-1.000000 0.000000 0.000000
-1.000000 0.000000 0.000000
-1.000000 0.000000 0.000000
-0.939693 -0.342020 0.000000
-1.000000 0.000000 0.000000
-1.000000 0.000000 0.000000
-0.939693 -0.342020 0.000000
-0.939693 -0.342020 0.000000
-0.939693 -0.342020 0.000000
-0.766045 -0.642787 0.000000
-0.939693 -0.342020 0.000000
-0.939693 -0.342020 0.000000
-0.766045 -0.642787 0.000000
-0.766045 -0.642787 0.000000
-0.766045 -0.642787 0.000000
-0.500000 -0.866025 0.000000
-0.766045 -0.642787 0.000000
-0.766045 -0.642787 0.000000
-0.500000 -0.866025 0.000000
-0.500000 -0.866025 0.000000
-0.500000 -0.866025 0.000000
-0.173649 -0.984808 0.000000
-0.500000 -0.866025 0.000000
-0.500000 -0.866025 0.000000
-0.173649 -0.984808 0.000000
-0.173649 -0.984808 0.000000
-0.173649 -0.984808 0.000000
0.173648 -0.984808 0.000000
-0.173649 -0.984808 0.000000
-0.173649 -0.984808 0.000000
0.173648 -0.984808 0.000000
0.173648 -0.984808 0.000000
0.173648 -0.984808 0.000000
0.499999 -0.866026 0.000000
0.173648 -0.984808 0.000000
0.173648 -0.984808 0.000000
0.499999 -0.866026 0.000000
0.499999 -0.866026 0.000000
0.499999 -0.866026 0.000000
0.766044 -0.642788 0.000000
0.499999 -0.866026 0.000000
0.499999 -0.866026 0.000000
0.766044 -0.642788 0.000000
0.766044 -0.642788 0.000000
0.766044 -0.642788 0.000000
0.939692 -0.342021 0.000000
0.766044 -0.642788 0.000000
0.766044 -0.642788 0.000000
0.939692 -0.342021 0.000000
0.939692 -0.342021 0.000000
0.939692 -0.342021 0.000000
1.000000 -0.000000 0.000000
0.939692 -0.342021 0.000000
0.939692 -0.342021 0.000000
1.000000 -0.000000 0.000000
1.000000 -0.000000 0.000000
1.000000 -0.000000 0.000000
0.939693 0.342020 0.000000
1.000000 -0.000000 0.000000
1.000000 -0.000000 0.000000
0.939693 0.342020 0.000000
0.939693 0.342020 0.000000
0.939693 0.342020 0.000000
0.766044 0.642788 0.000000
0.939693 0.342020 0.000000
0.939693 0.342020 0.000000
0.766044 0.642788 0.000000
0.766044 0.642788 0.000000
0.766044 0.642788 0.000000
0.500000 0.866025 0.000000
0.766044 0.642788 0.000000
0.766044 0.642788 0.000000
0.500000 0.866025 0.000000
0.500000 0.866025 0.000000
0.500000 0.866025 0.000000
0.173648 0.984808 0.000000
0.500000 0.866025 0.000000
0.500000 0.866025 0.000000
0.173648 0.984808 0.000000
0.173648 0.984808 0.000000
0.173648 0.984808 0.000000
-0.173648 0.984808 0.000000
0.173648 0.984808 0.000000
0.173648 0.984808 0.000000
-0.173648 0.984808 0.000000
-0.173648 0.984808 0.000000
-0.173648 0.984808 0.000000
-0.500000 0.866025 0.000000
-0.173648 0.984808 0.000000
-0.173648 0.984808 0.000000
-0.500000 0.866025 0.000000
-0.500000 0.866025 0.000000
-0.500000 0.866025 0.000000
-0.766044 0.642788 0.000000
-0.500000 0.866025 0.000000
-0.500000 0.866025 0.000000
-0.766044 0.642788 0.000000
-0.766044 0.642788 0.000000
-0.766044 0.642788 0.000000
-0.939693 0.342020 0.000000
-0.766044 0.642788 0.000000
-0.766044 0.642788 0.000000
-0.939693 0.342020 0.000000
-0.939693 0.342020 0.000000
-0.939693 0.342020 0.000000
-1.000000 0.000000 0.000000
-0.939693 0.342020 0.000000
-0.939693 0.342020 0.000000
-1.000000 0.000000 0.000000
-1.000000 0.000000 0.000000
-1.000000 0.000000 0.000000
-0.939693 -0.342020 0.000000
-1.000000 0.000000 0.000000
-1.000000 0.000000 0.000000
-0.939693 -0.342020 0.000000
-0.939693 -0.342020 0.000000
-0.939693 -0.342020 0.000000
-0.766045 -0.642787 0.000000
-0.939693 -0.342020 0.000000
-0.939693 -0.342020 0.000000
-0.766045 -0.642787 0.000000
-0.766045 -0.642787 0.000000
-0.766045 -0.642787 0.000000
-0.500000 -0.866025 0.000000
-0.766045 -0.642787 0.000000
-0.766045 -0.642787 0.000000
-0.500000 -0.866025 0.000000
-0.500000 -0.866025 0.000000
-0.500000 -0.866025 0.000000
-0.173649 -0.984808 0.000000
-0.500000 -0.866025 0.000000
-0.500000 -0.866025 0.000000
-0.173649 -0.984808 0.000000
-0.173649 -0.984808 0.000000
-0.173649 -0.984808 0.000000
0.173648 -0.984808 0.000000
-0.173649 -0.984808 0.000000
-0.173649 -0.984808 0.000000
0.173648 -0.984808 0.000000
0.173648 -0.984808 0.000000
0.173648 -0.984808 0.000000
0.499999 -0.866026 0.000000
0.173648 -0.984808 0.000000
0.173648 -0.984808 0.000000
0.499999 -0.866026 0.000000
0.499999 -0.866026 0.000000
0.499999 -0.866026 0.000000
0.766044 -0.642788 0.000000
0.499999 -0.866026 0.000000
0.499999 -0.866026 0.000000
0.766044 -0.642788 0.000000
0.766044 -0.642788 0.000000
0.766044 -0.642788 0.000000
0.939692 -0.342021 0.000000
0.766044 -0.642788 0.000000
0.766044 -0.642788 0.000000
0.939692 -0.342021 0.000000
0.939692 -0.342021 0.000000
0.939692 -0.342021 0.000000
1.000000 -0.000000 0.000000
0.939692 -0.342021 0.000000
0.939692 -0.342021 0.000000
1.000000 -0.000000 0.000000
1.000000 -0.000000 0.000000
0.000000 0.000000 1.000000
0.000000 0.000000 1.000000
0.000000 0.000000 1.000000
0.000000 0.000000 1.000000
0.000000 0.000000 1.000000
0.000000 0.000000 1.000000
0.000000 0.000000 1.000000
0.000000 0.000000 1.000000
0.000000 0.000000 1.000000
0.000000 0.000000 1.000000
0.000000 0.000000 1.000000
0.000000 0.000000 1.000000
0.000000 0.000000 1.000000
0.000000 0.000000 1.000000
0.000000 0.000000 1.000000
0.000000 0.000000 1.000000
0.000000 0.000000 1.000000
0.000000 0.000000 1.000000
0.000000 0.000000 1.000000
0.000000 0.000000 1.000000
0.000000 0.000000 1.000000
0.000000 0.000000 1.000000
0.000000 0.000000 1.000000
0.000000 0.000000 1.000000
0.000000 0.000000 1.000000
0.000000 0.000000 1.000000
0.000000 0.000000 1.000000
0.000000 0.000000 1.000000
0.000000 0.000000 1.000000
0.000000 0.000000 1.000000
0.000000 0.000000 1.000000
0.000000 0.000000 1.000000
0.000000 0.000000 1.000000
0.000000 0.000000 1.000000
0.000000 0.000000 1.000000
0.000000 0.000000 1.000000
0.000000 0.000000 1.000000
0.000000 0.000000 1.000000
0.000000 0.000000 1.000000
0.000000 0.000000 1.000000
0.000000 0.000000 1.000000
0.000000 0.000000 1.000000
0.000000 0.000000 1.000000
0.000000 0.000000 1.000000
0.000000 0.000000 1.000000
0.000000 0.000000 1.000000
0.000000 0.000000 1.000000
0.000000 0.000000 1.000000
0.000000 0.000000 1.000000
0.000000 0.000000 1.000000
0.000000 0.000000 1.000000
0.000000 0.000000 1.000000
0.000000 0.000000 1.000000
0.000000 0.000000 1.000000
</float_array>
          <technique_common>
            <accessor source="#Cylinder01-lib-Normal0-array" count="648" stride="3">
              <param name="X" type="float"/>
              <param name="Y" type="float"/>
              <param name="Z" type="float"/>
            </accessor>
          </technique_common>
        </source>
        <source id="Cylinder01-lib-UV0">
          <float_array id="Cylinder01-lib-UV0-array" count="254">
0.500000 0.000000
0.750000 0.000000
0.805556 0.000000
0.861111 0.000000
0.916667 0.000000
0.972222 0.000000
0.027778 0.000000
0.083333 0.000000
0.138889 0.000000
0.194444 0.000000
0.250000 0.000000
0.305556 0.000000
0.361111 0.000000
0.416667 0.000000
0.472222 0.000000
0.527778 0.000000
0.583333 0.000000
0.638889 0.000000
0.694444 0.000000
0.750000 0.200000
0.805556 0.200000
0.861111 0.200000
0.916667 0.200000
0.972222 0.200000
0.027778 0.200000
0.083333 0.200000
0.138889 0.200000
0.194444 0.200000
0.250000 0.200000
0.305556 0.200000
0.361111 0.200000
0.416667 0.200000
0.472222 0.200000
0.527778 0.200000
0.583333 0.200000
0.638889 0.200000
0.694444 0.200000
0.750000 0.400000
0.805556 0.400000
0.861111 0.400000
0.916667 0.400000
0.972222 0.400000
0.027778 0.400000
0.083333 0.400000
0.138889 0.400000
0.194444 0.400000
0.250000 0.400000
0.305556 0.400000
0.361111 0.400000
0.416667 0.400000
0.472222 0.400000
0.527778 0.400000
0.583333 0.400000
0.638889 0.400000
0.694444 0.400000
0.750000 0.600000
0.805556 0.600000
0.861111 0.600000
0.916667 0.600000
0.972222 0.600000
0.027778 0.600000
0.083333 0.600000
0.138889 0.600000
0.194444 0.600000
0.250000 0.600000
0.305556 0.600000
0.361111 0.600000
0.416667 0.600000
0.472222 0.600000
0.527778 0.600000
0.583333 0.600000
0.638889 0.600000
0.694444 0.600000
0.750000 0.800000
0.805556 0.800000
0.861111 0.800000
0.916667 0.800000
0.972222 0.800000
0.027778 0.800000
0.083333 0.800000
0.138889 0.800000
0.194444 0.800000
0.250000 0.800000
0.305556 0.800000
0.361111 0.800000
0.416667 0.800000
0.472222 0.800000
0.527778 0.800000
0.583333 0.800000
0.638889 0.800000
0.694444 0.800000
0.750000 1.000000
0.805556 1.000000
0.861111 1.000000
0.916667 1.000000
0.972222 1.000000
0.027778 1.000000
0.083333 1.000000
0.138889 1.000000
0.194444 1.000000
0.250000 1.000000
0.305556 1.000000
0.361111 1.000000
0.416667 1.000000
0.472222 1.000000
0.527778 1.000000
0.583333 1.000000
0.638889 1.000000
0.694444 1.000000
0.500000 1.000000
-0.027778 0.000000
-0.027778 0.000000
-0.027778 0.200000
-0.027778 0.000000
-0.027778 0.200000
-0.027778 0.400000
-0.027778 0.200000
-0.027778 0.400000
-0.027778 0.600000
-0.027778 0.400000
-0.027778 0.600000
-0.027778 0.800000
-0.027778 0.600000
-0.027778 0.800000
-0.027778 1.000000
-0.027778 0.800000
-0.027778 1.000000
</float_array>
          <technique_common>
            <accessor source="#Cylinder01-lib-UV0-array" count="127" stride="2">
              <param name="S" type="float"/>
              <param name="T" type="float"/>
            </accessor>
          </technique_common>
        </source>
        <vertices id="Cylinder01-lib-Vertex">
          <input semantic="POSITION" source="#Cylinder01-lib-Position"/>
        </vertices>
        <polygons count="216">
          <input semantic="VERTEX" offset="0" source="#Cylinder01-lib-Vertex"/>
          <input semantic="NORMAL" offset="1" source="#Cylinder01-lib-Normal0"/>
          <input semantic="TEXCOORD" offset="2" set="0" source="#Cylinder01-lib-UV0"/>
          <p>0 0 0 2 1 2 1 2 1</p>
          <p>0 3 0 3 4 3 2 5 2</p>
          <p>0 6 0 4 7 4 3 8 3</p>
          <p>0 9 0 5 10 5 4 11 4</p>
          <p>0 12 0 6 13 6 5 14 110</p>
          <p>0 15 0 7 16 7 6 17 6</p>
          <p>0 18 0 8 19 8 7 20 7</p>
          <p>0 21 0 9 22 9 8 23 8</p>
          <p>0 24 0 10 25 10 9 26 9</p>
          <p>0 27 0 11 28 11 10 29 10</p>
          <p>0 30 0 12 31 12 11 32 11</p>
          <p>0 33 0 13 34 13 12 35 12</p>
          <p>0 36 0 14 37 14 13 38 13</p>
          <p>0 39 0 15 40 15 14 41 14</p>
          <p>0 42 0 16 43 16 15 44 15</p>
          <p>0 45 0 17 46 17 16 47 16</p>
          <p>0 48 0 18 49 18 17 50 17</p>
          <p>0 51 0 1 52 1 18 53 18</p>
          <p>1 54 1 20 55 20 19 56 19</p>
          <p>1 57 1 2 58 2 20 59 20</p>
          <p>2 60 2 21 61 21 20 62 20</p>
          <p>2 63 2 3 64 3 21 65 21</p>
          <p>3 66 3 22 67 22 21 68 21</p>
          <p>3 69 3 4 70 4 22 71 22</p>
          <p>4 72 4 23 73 23 22 74 22</p>
          <p>4 75 4 5 76 5 23 77 23</p>
          <p>5 78 111 24 79 24 23 80 112</p>
          <p>5 81 113 6 82 6 24 83 24</p>
          <p>6 84 6 25 85 25 24 86 24</p>
          <p>6 87 6 7 88 7 25 89 25</p>
          <p>7 90 7 26 91 26 25 92 25</p>
          <p>7 93 7 8 94 8 26 95 26</p>
          <p>8 96 8 27 97 27 26 98 26</p>
          <p>8 99 8 9 100 9 27 101 27</p>
          <p>9 102 9 28 103 28 27 104 27</p>
          <p>9 105 9 10 106 10 28 107 28</p>
          <p>10 108 10 29 109 29 28 110 28</p>
          <p>10 111 10 11 112 11 29 113 29</p>
          <p>11 114 11 30 115 30 29 116 29</p>
          <p>11 117 11 12 118 12 30 119 30</p>
          <p>12 120 12 31 121 31 30 122 30</p>
          <p>12 123 12 13 124 13 31 125 31</p>
          <p>13 126 13 32 127 32 31 128 31</p>
          <p>13 129 13 14 130 14 32 131 32</p>
          <p>14 132 14 33 133 33 32 134 32</p>
          <p>14 135 14 15 136 15 33 137 33</p>
          <p>15 138 15 34 139 34 33 140 33</p>
          <p>15 141 15 16 142 16 34 143 34</p>
          <p>16 144 16 35 145 35 34 146 34</p>
          <p>16 147 16 17 148 17 35 149 35</p>
          <p>17 150 17 36 151 36 35 152 35</p>
          <p>17 153 17 18 154 18 36 155 36</p>
          <p>18 156 18 19 157 19 36 158 36</p>
          <p>18 159 18 1 160 1 19 161 19</p>
          <p>19 162 19 38 163 38 37 164 37</p>
          <p>19 165 19 20 166 20 38 167 38</p>
          <p>20 168 20 39 169 39 38 170 38</p>
          <p>20 171 20 21 172 21 39 173 39</p>
          <p>21 174 21 40 175 40 39 176 39</p>
          <p>21 177 21 22 178 22 40 179 40</p>
          <p>22 180 22 41 181 41 40 182 40</p>
          <p>22 183 22 23 184 23 41 185 41</p>
          <p>23 186 114 42 187 42 41 188 115</p>
          <p>23 189 116 24 190 24 42 191 42</p>
          <p>24 192 24 43 193 43 42 194 42</p>
          <p>24 195 24 25 196 25 43 197 43</p>
          <p>25 198 25 44 199 44 43 200 43</p>
          <p>25 201 25 26 202 26 44 203 44</p>
          <p>26 204 26 45 205 45 44 206 44</p>
          <p>26 207 26 27 208 27 45 209 45</p>
          <p>27 210 27 46 211 46 45 212 45</p>
          <p>27 213 27 28 214 28 46 215 46</p>
          <p>28 216 28 47 217 47 46 218 46</p>
          <p>28 219 28 29 220 29 47 221 47</p>
          <p>29 222 29 48 223 48 47 224 47</p>
          <p>29 225 29 30 226 30 48 227 48</p>
          <p>30 228 30 49 229 49 48 230 48</p>
          <p>30 231 30 31 232 31 49 233 49</p>
          <p>31 234 31 50 235 50 49 236 49</p>
          <p>31 237 31 32 238 32 50 239 50</p>
          <p>32 240 32 51 241 51 50 242 50</p>
          <p>32 243 32 33 244 33 51 245 51</p>
          <p>33 246 33 52 247 52 51 248 51</p>
          <p>33 249 33 34 250 34 52 251 52</p>
          <p>34 252 34 53 253 53 52 254 52</p>
          <p>34 255 34 35 256 35 53 257 53</p>
          <p>35 258 35 54 259 54 53 260 53</p>
          <p>35 261 35 36 262 36 54 263 54</p>
          <p>36 264 36 37 265 37 54 266 54</p>
          <p>36 267 36 19 268 19 37 269 37</p>
          <p>37 270 37 56 271 56 55 272 55</p>
          <p>37 273 37 38 274 38 56 275 56</p>
          <p>38 276 38 57 277 57 56 278 56</p>
          <p>38 279 38 39 280 39 57 281 57</p>
          <p>39 282 39 58 283 58 57 284 57</p>
          <p>39 285 39 40 286 40 58 287 58</p>
          <p>40 288 40 59 289 59 58 290 58</p>
          <p>40 291 40 41 292 41 59 293 59</p>
          <p>41 294 117 60 295 60 59 296 118</p>
          <p>41 297 119 42 298 42 60 299 60</p>
          <p>42 300 42 61 301 61 60 302 60</p>
          <p>42 303 42 43 304 43 61 305 61</p>
          <p>43 306 43 62 307 62 61 308 61</p>
          <p>43 309 43 44 310 44 62 311 62</p>
          <p>44 312 44 63 313 63 62 314 62</p>
          <p>44 315 44 45 316 45 63 317 63</p>
          <p>45 318 45 64 319 64 63 320 63</p>
          <p>45 321 45 46 322 46 64 323 64</p>
          <p>46 324 46 65 325 65 64 326 64</p>
          <p>46 327 46 47 328 47 65 329 65</p>
          <p>47 330 47 66 331 66 65 332 65</p>
          <p>47 333 47 48 334 48 66 335 66</p>
          <p>48 336 48 67 337 67 66 338 66</p>
          <p>48 339 48 49 340 49 67 341 67</p>
          <p>49 342 49 68 343 68 67 344 67</p>
          <p>49 345 49 50 346 50 68 347 68</p>
          <p>50 348 50 69 349 69 68 350 68</p>
          <p>50 351 50 51 352 51 69 353 69</p>
          <p>51 354 51 70 355 70 69 356 69</p>
          <p>51 357 51 52 358 52 70 359 70</p>
          <p>52 360 52 71 361 71 70 362 70</p>
          <p>52 363 52 53 364 53 71 365 71</p>
          <p>53 366 53 72 367 72 71 368 71</p>
          <p>53 369 53 54 370 54 72 371 72</p>
          <p>54 372 54 55 373 55 72 374 72</p>
          <p>54 375 54 37 376 37 55 377 55</p>
          <p>55 378 55 74 379 74 73 380 73</p>
          <p>55 381 55 56 382 56 74 383 74</p>
          <p>56 384 56 75 385 75 74 386 74</p>
          <p>56 387 56 57 388 57 75 389 75</p>
          <p>57 390 57 76 391 76 75 392 75</p>
          <p>57 393 57 58 394 58 76 395 76</p>
          <p>58 396 58 77 397 77 76 398 76</p>
          <p>58 399 58 59 400 59 77 401 77</p>
          <p>59 402 120 78 403 78 77 404 121</p>
          <p>59 405 122 60 406 60 78 407 78</p>
          <p>60 408 60 79 409 79 78 410 78</p>
          <p>60 411 60 61 412 61 79 413 79</p>
          <p>61 414 61 80 415 80 79 416 79</p>
          <p>61 417 61 62 418 62 80 419 80</p>
          <p>62 420 62 81 421 81 80 422 80</p>
          <p>62 423 62 63 424 63 81 425 81</p>
          <p>63 426 63 82 427 82 81 428 81</p>
          <p>63 429 63 64 430 64 82 431 82</p>
          <p>64 432 64 83 433 83 82 434 82</p>
          <p>64 435 64 65 436 65 83 437 83</p>
          <p>65 438 65 84 439 84 83 440 83</p>
          <p>65 441 65 66 442 66 84 443 84</p>
          <p>66 444 66 85 445 85 84 446 84</p>
          <p>66 447 66 67 448 67 85 449 85</p>
          <p>67 450 67 86 451 86 85 452 85</p>
          <p>67 453 67 68 454 68 86 455 86</p>
          <p>68 456 68 87 457 87 86 458 86</p>
          <p>68 459 68 69 460 69 87 461 87</p>
          <p>69 462 69 88 463 88 87 464 87</p>
          <p>69 465 69 70 466 70 88 467 88</p>
          <p>70 468 70 89 469 89 88 470 88</p>
          <p>70 471 70 71 472 71 89 473 89</p>
          <p>71 474 71 90 475 90 89 476 89</p>
          <p>71 477 71 72 478 72 90 479 90</p>
          <p>72 480 72 73 481 73 90 482 90</p>
          <p>72 483 72 55 484 55 73 485 73</p>
          <p>73 486 73 92 487 92 91 488 91</p>
          <p>73 489 73 74 490 74 92 491 92</p>
          <p>74 492 74 93 493 93 92 494 92</p>
          <p>74 495 74 75 496 75 93 497 93</p>
          <p>75 498 75 94 499 94 93 500 93</p>
          <p>75 501 75 76 502 76 94 503 94</p>
          <p>76 504 76 95 505 95 94 506 94</p>
          <p>76 507 76 77 508 77 95 509 95</p>
          <p>77 510 123 96 511 96 95 512 124</p>
          <p>77 513 125 78 514 78 96 515 96</p>
          <p>78 516 78 97 517 97 96 518 96</p>
          <p>78 519 78 79 520 79 97 521 97</p>
          <p>79 522 79 98 523 98 97 524 97</p>
          <p>79 525 79 80 526 80 98 527 98</p>
          <p>80 528 80 99 529 99 98 530 98</p>
          <p>80 531 80 81 532 81 99 533 99</p>
          <p>81 534 81 100 535 100 99 536 99</p>
          <p>81 537 81 82 538 82 100 539 100</p>
          <p>82 540 82 101 541 101 100 542 100</p>
          <p>82 543 82 83 544 83 101 545 101</p>
          <p>83 546 83 102 547 102 101 548 101</p>
          <p>83 549 83 84 550 84 102 551 102</p>
          <p>84 552 84 103 553 103 102 554 102</p>
          <p>84 555 84 85 556 85 103 557 103</p>
          <p>85 558 85 104 559 104 103 560 103</p>
          <p>85 561 85 86 562 86 104 563 104</p>
          <p>86 564 86 105 565 105 104 566 104</p>
          <p>86 567 86 87 568 87 105 569 105</p>
          <p>87 570 87 106 571 106 105 572 105</p>
          <p>87 573 87 88 574 88 106 575 106</p>
          <p>88 576 88 107 577 107 106 578 106</p>
          <p>88 579 88 89 580 89 107 581 107</p>
          <p>89 582 89 108 583 108 107 584 107</p>
          <p>89 585 89 90 586 90 108 587 108</p>
          <p>90 588 90 91 589 91 108 590 108</p>
          <p>90 591 90 73 592 73 91 593 91</p>
          <p>109 594 109 91 595 91 92 596 92</p>
          <p>109 597 109 92 598 92 93 599 93</p>
          <p>109 600 109 93 601 93 94 602 94</p>
          <p>109 603 109 94 604 94 95 605 95</p>
          <p>109 606 109 95 607 126 96 608 96</p>
          <p>109 609 109 96 610 96 97 611 97</p>
          <p>109 612 109 97 613 97 98 614 98</p>
          <p>109 615 109 98 616 98 99 617 99</p>
          <p>109 618 109 99 619 99 100 620 100</p>
          <p>109 621 109 100 622 100 101 623 101</p>
          <p>109 624 109 101 625 101 102 626 102</p>
          <p>109 627 109 102 628 102 103 629 103</p>
          <p>109 630 109 103 631 103 104 632 104</p>
          <p>109 633 109 104 634 104 105 635 105</p>
          <p>109 636 109 105 637 105 106 638 106</p>
          <p>109 639 109 106 640 106 107 641 107</p>
          <p>109 642 109 107 643 107 108 644 108</p>
          <p>109 645 109 108 646 108 91 647 91</p>
        </polygons>
      </mesh>
    </geometry>
  </library_geometries>
  <library_visual_scenes>
    <visual_scene id="RootNode" name="RootNode">
      <node id="Cylinder01" name="Cylinder01">
        <rotate sid="jointOrientX">1 0 0 -90.000000</rotate>
        <instance_geometry url="#Cylinder01-lib"/>
      </node>
    </visual_scene>
  </library_visual_scenes>
  <scene>
    <instance_visual_scene url="#RootNode"/>
  </scene>
</COLLADA>

